simulation/qsim/FPGACode.msim.vcd
$comment
	File created using the following command:
		vcd file FPGACode.msim.vcd -direction
$end
$date
	Tue Aug 26 22:48:49 2025
$end
$version
	Questa Intel Starter FPGA Edition Version 2024.3
$end
$timescale
	1ps
$end

$scope module fpgacode_vhd_vec_tst $end
$var wire 1 ! ETH0_RX_N $end
$var wire 1 " ETH0_RX_P $end
$var wire 1 # ETH0_TX_N $end
$var wire 1 $ ETH0_TX_P $end
$var wire 1 % ETH1_RX_N $end
$var wire 1 & ETH1_RX_P $end
$var wire 1 ' ETH1_TX_N $end
$var wire 1 ( ETH1_TX_P $end
$var wire 1 ) KEY1 $end
$var wire 1 * LED1 $end
$var wire 1 + MAIN_CLK $end
$var wire 1 , RESET $end
$var wire 1 - TEST_CLK_10M $end
$var wire 1 . TEST_CLK_20M $end
$var wire 1 / TEST_CLK_50M $end
$var wire 1 0 TEST_MNC $end
$var wire 1 1 TEST_NLP $end
$var wire 1 2 TEST_PLL_LOCK $end

$scope module i1 $end
$var wire 1 3 gnd $end
$var wire 1 4 vcc $end
$var wire 1 5 unknown $end
$var wire 1 6 devoe $end
$var wire 1 7 devclrn $end
$var wire 1 8 devpor $end
$var wire 1 9 ww_devoe $end
$var wire 1 : ww_devclrn $end
$var wire 1 ; ww_devpor $end
$var wire 1 < ww_LED1 $end
$var wire 1 = ww_RESET $end
$var wire 1 > ww_TEST_CLK_20M $end
$var wire 1 ? ww_MAIN_CLK $end
$var wire 1 @ ww_TEST_PLL_LOCK $end
$var wire 1 A ww_TEST_CLK_10M $end
$var wire 1 B ww_ETH1_TX_P $end
$var wire 1 C ww_ETH1_TX_N $end
$var wire 1 D ww_ETH0_TX_P $end
$var wire 1 E ww_ETH0_TX_N $end
$var wire 1 F ww_TEST_CLK_50M $end
$var wire 1 G ww_TEST_NLP $end
$var wire 1 H ww_TEST_MNC $end
$var wire 1 I ww_KEY1 $end
$var wire 1 J ww_ETH0_RX_P $end
$var wire 1 K ww_ETH0_RX_N $end
$var wire 1 L ww_ETH1_RX_P $end
$var wire 1 M ww_ETH1_RX_N $end
$var wire 1 N \inst|altpll_component|auto_generated|pll1_INCLK_bus\ [1] $end
$var wire 1 O \inst|altpll_component|auto_generated|pll1_INCLK_bus\ [0] $end
$var wire 1 P \inst|altpll_component|auto_generated|pll1_CLK_bus\ [4] $end
$var wire 1 Q \inst|altpll_component|auto_generated|pll1_CLK_bus\ [3] $end
$var wire 1 R \inst|altpll_component|auto_generated|pll1_CLK_bus\ [2] $end
$var wire 1 S \inst|altpll_component|auto_generated|pll1_CLK_bus\ [1] $end
$var wire 1 T \inst|altpll_component|auto_generated|pll1_CLK_bus\ [0] $end
$var wire 1 U \inst|altpll_component|auto_generated|wire_pll1_clk[0]~clkctrl_e_TEST_CLK_50M_INCLK_bus\ [3] $end
$var wire 1 V \inst|altpll_component|auto_generated|wire_pll1_clk[0]~clkctrl_e_TEST_CLK_50M_INCLK_bus\ [2] $end
$var wire 1 W \inst|altpll_component|auto_generated|wire_pll1_clk[0]~clkctrl_e_TEST_CLK_50M_INCLK_bus\ [1] $end
$var wire 1 X \inst|altpll_component|auto_generated|wire_pll1_clk[0]~clkctrl_e_TEST_CLK_50M_INCLK_bus\ [0] $end
$var wire 1 Y \inst|altpll_component|auto_generated|wire_pll1_clk[2]~clkctrl_INCLK_bus\ [3] $end
$var wire 1 Z \inst|altpll_component|auto_generated|wire_pll1_clk[2]~clkctrl_INCLK_bus\ [2] $end
$var wire 1 [ \inst|altpll_component|auto_generated|wire_pll1_clk[2]~clkctrl_INCLK_bus\ [1] $end
$var wire 1 \ \inst|altpll_component|auto_generated|wire_pll1_clk[2]~clkctrl_INCLK_bus\ [0] $end
$var wire 1 ] \inst|altpll_component|auto_generated|wire_pll1_clk[1]~clkctrl_INCLK_bus\ [3] $end
$var wire 1 ^ \inst|altpll_component|auto_generated|wire_pll1_clk[1]~clkctrl_INCLK_bus\ [2] $end
$var wire 1 _ \inst|altpll_component|auto_generated|wire_pll1_clk[1]~clkctrl_INCLK_bus\ [1] $end
$var wire 1 ` \inst|altpll_component|auto_generated|wire_pll1_clk[1]~clkctrl_INCLK_bus\ [0] $end
$var wire 1 a \ETH0_RX_P~input_o\ $end
$var wire 1 b \ETH0_RX_N~input_o\ $end
$var wire 1 c \ETH1_RX_P~input_o\ $end
$var wire 1 d \ETH1_RX_N~input_o\ $end
$var wire 1 e \~ALTERA_ASDO_DATA1~~ibuf_o\ $end
$var wire 1 f \~ALTERA_ASDO_DATA1~~padout\ $end
$var wire 1 g \~ALTERA_FLASH_nCE_nCSO~~ibuf_o\ $end
$var wire 1 h \~ALTERA_FLASH_nCE_nCSO~~padout\ $end
$var wire 1 i \~ALTERA_DCLK~~padout\ $end
$var wire 1 j \~ALTERA_DATA0~~ibuf_o\ $end
$var wire 1 k \~ALTERA_DATA0~~padout\ $end
$var wire 1 l \~ALTERA_nCEO~~padout\ $end
$var wire 1 m \~ALTERA_DCLK~~obuf_o\ $end
$var wire 1 n \~ALTERA_nCEO~~obuf_o\ $end
$var wire 1 o \RESET~input_o\ $end
$var wire 1 p \MAIN_CLK~input_o\ $end
$var wire 1 q \inst|altpll_component|auto_generated|wire_pll1_fbout\ $end
$var wire 1 r \inst|altpll_component|auto_generated|wire_pll1_clk[1]~clkctrl_outclk\ $end
$var wire 1 s \inst|altpll_component|auto_generated|wire_pll1_locked\ $end
$var wire 1 t \inst|altpll_component|auto_generated|wire_pll1_clk[2]~clkctrl_outclk\ $end
$var wire 1 u \inst|altpll_component|auto_generated|wire_pll1_clk[0]~clkctrl_e_TEST_CLK_50M_outclk\ $end
$var wire 1 v \inst8|r_delay_counter[0]~48_combout\ $end
$var wire 1 w \inst8|r_delay_counter[1]~16_combout\ $end
$var wire 1 x \inst8|r_delay_counter[1]~17\ $end
$var wire 1 y \inst8|r_delay_counter[2]~18_combout\ $end
$var wire 1 z \inst8|r_nlp_int~0_combout\ $end
$var wire 1 { \inst8|r_delay_counter[2]~19\ $end
$var wire 1 | \inst8|r_delay_counter[3]~20_combout\ $end
$var wire 1 } \inst8|r_delay_counter[3]~21\ $end
$var wire 1 ~ \inst8|r_delay_counter[4]~22_combout\ $end
$var wire 1 !! \inst8|r_delay_counter[4]~23\ $end
$var wire 1 "! \inst8|r_delay_counter[5]~24_combout\ $end
$var wire 1 #! \inst8|r_delay_counter[5]~25\ $end
$var wire 1 $! \inst8|r_delay_counter[6]~26_combout\ $end
$var wire 1 %! \inst8|r_delay_counter[6]~27\ $end
$var wire 1 &! \inst8|r_delay_counter[7]~28_combout\ $end
$var wire 1 '! \inst8|r_delay_counter[7]~29\ $end
$var wire 1 (! \inst8|r_delay_counter[8]~30_combout\ $end
$var wire 1 )! \inst8|r_delay_counter[8]~31\ $end
$var wire 1 *! \inst8|r_delay_counter[9]~32_combout\ $end
$var wire 1 +! \inst8|r_delay_counter[9]~33\ $end
$var wire 1 ,! \inst8|r_delay_counter[10]~34_combout\ $end
$var wire 1 -! \inst8|r_nlp_int~2_combout\ $end
$var wire 1 .! \inst8|r_nlp_int~1_combout\ $end
$var wire 1 /! \inst8|r_delay_counter[10]~35\ $end
$var wire 1 0! \inst8|r_delay_counter[11]~36_combout\ $end
$var wire 1 1! \inst8|r_delay_counter[11]~37\ $end
$var wire 1 2! \inst8|r_delay_counter[12]~38_combout\ $end
$var wire 1 3! \inst8|r_delay_counter[12]~39\ $end
$var wire 1 4! \inst8|r_delay_counter[13]~40_combout\ $end
$var wire 1 5! \inst8|r_delay_counter[13]~41\ $end
$var wire 1 6! \inst8|r_delay_counter[14]~42_combout\ $end
$var wire 1 7! \inst8|r_nlp_int~3_combout\ $end
$var wire 1 8! \inst8|r_nlp_int~4_combout\ $end
$var wire 1 9! \inst8|r_delay_counter[14]~43\ $end
$var wire 1 :! \inst8|r_delay_counter[15]~44_combout\ $end
$var wire 1 ;! \inst8|r_delay_counter[15]~45\ $end
$var wire 1 <! \inst8|r_delay_counter[16]~46_combout\ $end
$var wire 1 =! \inst8|r_nlp_int~5_combout\ $end
$var wire 1 >! \inst8|r_nlp_int~q\ $end
$var wire 1 ?! \inst7|r_phase~0_combout\ $end
$var wire 1 @! \inst7|r_phase~q\ $end
$var wire 1 A! \KEY1~input_o\ $end
$var wire 1 B! \inst7|o_MNC_OUT~0_combout\ $end
$var wire 1 C! \inst|altpll_component|auto_generated|wire_pll1_clk\ [4] $end
$var wire 1 D! \inst|altpll_component|auto_generated|wire_pll1_clk\ [3] $end
$var wire 1 E! \inst|altpll_component|auto_generated|wire_pll1_clk\ [2] $end
$var wire 1 F! \inst|altpll_component|auto_generated|wire_pll1_clk\ [1] $end
$var wire 1 G! \inst|altpll_component|auto_generated|wire_pll1_clk\ [0] $end
$var wire 1 H! \inst8|r_delay_counter\ [16] $end
$var wire 1 I! \inst8|r_delay_counter\ [15] $end
$var wire 1 J! \inst8|r_delay_counter\ [14] $end
$var wire 1 K! \inst8|r_delay_counter\ [13] $end
$var wire 1 L! \inst8|r_delay_counter\ [12] $end
$var wire 1 M! \inst8|r_delay_counter\ [11] $end
$var wire 1 N! \inst8|r_delay_counter\ [10] $end
$var wire 1 O! \inst8|r_delay_counter\ [9] $end
$var wire 1 P! \inst8|r_delay_counter\ [8] $end
$var wire 1 Q! \inst8|r_delay_counter\ [7] $end
$var wire 1 R! \inst8|r_delay_counter\ [6] $end
$var wire 1 S! \inst8|r_delay_counter\ [5] $end
$var wire 1 T! \inst8|r_delay_counter\ [4] $end
$var wire 1 U! \inst8|r_delay_counter\ [3] $end
$var wire 1 V! \inst8|r_delay_counter\ [2] $end
$var wire 1 W! \inst8|r_delay_counter\ [1] $end
$var wire 1 X! \inst8|r_delay_counter\ [0] $end
$upscope $end
$upscope $end
$enddefinitions $end
#0
$dumpvars
x!
x"
1#
0$
x%
x&
1'
0(
x)
0*
0+
0,
x-
x.
x/
x0
01
02
03
14
x5
16
17
18
19
1:
1;
0<
0=
x>
0?
0@
xA
0B
1C
0D
1E
xF
0G
xH
xI
xJ
xK
xL
xM
xa
xb
xc
xd
xe
xf
xg
xh
xi
xj
xk
xl
xm
xn
0o
0p
xq
xr
0s
xt
xu
1v
0w
0x
0y
0z
1{
0|
0}
0~
1!!
0"!
0#!
0$!
1%!
0&!
0'!
0(!
1)!
0*!
0+!
0,!
0-!
0.!
1/!
00!
01!
02!
13!
04!
05!
06!
07!
08!
19!
0:!
0;!
0<!
0=!
0>!
1?!
0@!
xA!
xB!
xP
xQ
xR
xS
xT
0H!
0I!
0J!
0K!
0L!
0M!
0N!
0O!
0P!
0Q!
0R!
0S!
0T!
0U!
0V!
0W!
0X!
0N
0O
1]
1^
1_
x`
1Y
1Z
1[
x\
1U
1V
1W
xX
xC!
xD!
xE!
xF!
xG!
$end
#834
1q
#10000
1+
1?
1p
1O
#10834
0q
#20000
0+
0?
0p
0O
#20834
1q
#30000
1+
1?
1p
1O
#30834
0q
#40000
0+
0?
0p
0O
#40834
1q
#50000
1+
1?
1p
1O
#50834
0q
#60000
0+
0?
0p
0O
#60834
1q
#70000
1+
1?
1p
1O
#75417
0q
#80000
0+
0?
0p
0O
#90000
1+
1?
1q
1s
1P
1Q
0R
0S
1T
1p
1C!
1D!
0E!
0F!
1G!
1O
0\
0`
1X
1@
1u
0r
0t
12
0A
0>
1F
0-
0.
1/
#100000
0+
0?
0q
0P
0Q
0T
0p
0C!
0D!
0G!
0O
0X
0u
0F
0/
#110000
1+
1?
1q
1P
1Q
1R
1S
1T
1p
1C!
1D!
1E!
1F!
1G!
1O
1\
1`
1X
1u
1r
1t
1X!
1@!
0?!
0v
1w
1A
1>
1F
1-
1.
1/
#120000
0+
0?
0q
0P
0Q
0T
0p
0C!
0D!
0G!
0O
0X
0u
0F
0/
#130000
1+
1?
1q
1P
1Q
1T
1p
1C!
1D!
1G!
1O
1X
1u
1F
1/
#135000
0S
0F!
0`
0r
0>
0.
#140000
0+
0?
0q
0P
0Q
0T
0p
0C!
0D!
0G!
0O
0X
0u
0F
0/
#150000
1+
1?
1q
1P
1Q
1T
1p
1C!
1D!
1G!
1O
1X
1u
1F
1/
#160000
0+
0?
0q
0P
0Q
0R
1S
0T
0p
0C!
0D!
0E!
1F!
0G!
0O
0\
1`
0X
0u
1r
0t
0@!
1?!
0A
1>
0F
0-
1.
0/
#170000
1+
1?
1q
1P
1Q
1T
1p
1C!
1D!
1G!
1O
1X
1u
1F
1/
#180000
0+
0?
0q
0P
0Q
0T
0p
0C!
0D!
0G!
0O
0X
0u
0F
0/
#185000
0S
0F!
0`
0r
0>
0.
#190000
1+
1?
1q
1P
1Q
1T
1p
1C!
1D!
1G!
1O
1X
1u
1F
1/
#200000
0+
0?
0q
0P
0Q
0T
0p
0C!
0D!
0G!
0O
0X
0u
0F
0/
#210000
1+
1?
1q
1P
1Q
1R
1S
1T
1p
1C!
1D!
1E!
1F!
1G!
1O
1\
1`
1X
1u
1r
1t
0X!
1W!
1@!
0?!
1v
1A
1>
1F
1-
1.
1/
#220000
0+
0?
0q
0P
0Q
0T
0p
0C!
0D!
0G!
0O
0X
0u
0F
0/
#230000
1+
1?
1q
1P
1Q
1T
1p
1C!
1D!
1G!
1O
1X
1u
1F
1/
#235000
0S
0F!
0`
0r
0>
0.
#240000
0+
0?
0q
0P
0Q
0T
0p
0C!
0D!
0G!
0O
0X
0u
0F
0/
#250000
1+
1?
1q
1P
1Q
1T
1p
1C!
1D!
1G!
1O
1X
1u
1F
1/
#260000
0+
0?
0q
0P
0Q
0R
1S
0T
0p
0C!
0D!
0E!
1F!
0G!
0O
0\
1`
0X
0u
1r
0t
0@!
1?!
0A
1>
0F
0-
1.
0/
#270000
1+
1?
1q
1P
1Q
1T
1p
1C!
1D!
1G!
1O
1X
1u
1F
1/
#280000
0+
0?
0q
0P
0Q
0T
0p
0C!
0D!
0G!
0O
0X
0u
0F
0/
#285000
0S
0F!
0`
0r
0>
0.
#290000
1+
1?
1q
1P
1Q
1T
1p
1C!
1D!
1G!
1O
1X
1u
1F
1/
#300000
0+
0?
0q
0P
0Q
0T
0p
0C!
0D!
0G!
0O
0X
0u
0F
0/
#310000
1+
1?
1q
1P
1Q
1R
1S
1T
1p
1C!
1D!
1E!
1F!
1G!
1O
1\
1`
1X
1u
1r
1t
1X!
1@!
0?!
0v
0w
1x
1A
1>
1F
1y
1-
1.
1/
#320000
0+
0?
0q
0P
0Q
0T
0p
0C!
0D!
0G!
0O
0X
0u
0F
0/
#330000
1+
1?
1q
1P
1Q
1T
1p
1C!
1D!
1G!
1O
1X
1u
1F
1/
#335000
0S
0F!
0`
0r
0>
0.
#340000
0+
0?
0q
0P
0Q
0T
0p
0C!
0D!
0G!
0O
0X
0u
0F
0/
#350000
1+
1?
1q
1P
1Q
1T
1p
1C!
1D!
1G!
1O
1X
1u
1F
1/
#360000
0+
0?
0q
0P
0Q
0R
1S
0T
0p
0C!
0D!
0E!
1F!
0G!
0O
0\
1`
0X
0u
1r
0t
0@!
1?!
0A
1>
0F
0-
1.
0/
#370000
1+
1?
1q
1P
1Q
1T
1p
1C!
1D!
1G!
1O
1X
1u
1F
1/
#380000
0+
0?
0q
0P
0Q
0T
0p
0C!
0D!
0G!
0O
0X
0u
0F
0/
#385000
0S
0F!
0`
0r
0>
0.
#390000
1+
1?
1q
1P
1Q
1T
1p
1C!
1D!
1G!
1O
1X
1u
1F
1/
#400000
0+
0?
0q
0P
0Q
0T
0p
0C!
0D!
0G!
0O
0X
0u
0F
0/
#410000
1+
1?
1q
1P
1Q
1R
1S
1T
1p
1C!
1D!
1E!
1F!
1G!
1O
1\
1`
1X
1u
1r
1t
0X!
0W!
1V!
1@!
0?!
0y
0{
1v
0x
1A
1>
1F
1y
1{
1|
1-
1.
1/
0|
#420000
0+
0?
0q
0P
0Q
0T
0p
0C!
0D!
0G!
0O
0X
0u
0F
0/
#430000
1+
1?
1q
1P
1Q
1T
1p
1C!
1D!
1G!
1O
1X
1u
1F
1/
#435000
0S
0F!
0`
0r
0>
0.
#440000
0+
0?
0q
0P
0Q
0T
0p
0C!
0D!
0G!
0O
0X
0u
0F
0/
#450000
1+
1?
1q
1P
1Q
1T
1p
1C!
1D!
1G!
1O
1X
1u
1F
1/
#460000
0+
0?
0q
0P
0Q
0R
1S
0T
0p
0C!
0D!
0E!
1F!
0G!
0O
0\
1`
0X
0u
1r
0t
0@!
1?!
0A
1>
0F
0-
1.
0/
#470000
1+
1?
1q
1P
1Q
1T
1p
1C!
1D!
1G!
1O
1X
1u
1F
1/
#480000
0+
0?
0q
0P
0Q
0T
0p
0C!
0D!
0G!
0O
0X
0u
0F
0/
#485000
0S
0F!
0`
0r
0>
0.
#490000
1+
1?
1q
1P
1Q
1T
1p
1C!
1D!
1G!
1O
1X
1u
1F
1/
#500000
0+
0?
0q
0P
0Q
0T
0p
0C!
0D!
0G!
0O
0X
0u
0F
0/
#510000
1+
1?
1q
1P
1Q
1R
1S
1T
1p
1C!
1D!
1E!
1F!
1G!
1O
1\
1`
1X
1u
1r
1t
1X!
1@!
0?!
0v
1w
1A
1>
1F
1-
1.
1/
#520000
0+
0?
0q
0P
0Q
0T
0p
0C!
0D!
0G!
0O
0X
0u
0F
0/
#530000
1+
1?
1q
1P
1Q
1T
1p
1C!
1D!
1G!
1O
1X
1u
1F
1/
#535000
0S
0F!
0`
0r
0>
0.
#540000
0+
0?
0q
0P
0Q
0T
0p
0C!
0D!
0G!
0O
0X
0u
0F
0/
#550000
1+
1?
1q
1P
1Q
1T
1p
1C!
1D!
1G!
1O
1X
1u
1F
1/
#560000
0+
0?
0q
0P
0Q
0R
1S
0T
0p
0C!
0D!
0E!
1F!
0G!
0O
0\
1`
0X
0u
1r
0t
0@!
1?!
0A
1>
0F
0-
1.
0/
#570000
1+
1?
1q
1P
1Q
1T
1p
1C!
1D!
1G!
1O
1X
1u
1F
1/
#580000
0+
0?
0q
0P
0Q
0T
0p
0C!
0D!
0G!
0O
0X
0u
0F
0/
#585000
0S
0F!
0`
0r
0>
0.
#590000
1+
1?
1q
1P
1Q
1T
1p
1C!
1D!
1G!
1O
1X
1u
1F
1/
#600000
0+
0?
0q
0P
0Q
0T
0p
0C!
0D!
0G!
0O
0X
0u
0F
0/
#610000
1+
1?
1q
1P
1Q
1R
1S
1T
1p
1C!
1D!
1E!
1F!
1G!
1O
1\
1`
1X
1u
1r
1t
0X!
1W!
1@!
0?!
1v
1A
1>
1F
1-
1.
1/
#620000
0+
0?
0q
0P
0Q
0T
0p
0C!
0D!
0G!
0O
0X
0u
0F
0/
#630000
1+
1?
1q
1P
1Q
1T
1p
1C!
1D!
1G!
1O
1X
1u
1F
1/
#635000
0S
0F!
0`
0r
0>
0.
#640000
0+
0?
0q
0P
0Q
0T
0p
0C!
0D!
0G!
0O
0X
0u
0F
0/
#650000
1+
1?
1q
1P
1Q
1T
1p
1C!
1D!
1G!
1O
1X
1u
1F
1/
#660000
0+
0?
0q
0P
0Q
0R
1S
0T
0p
0C!
0D!
0E!
1F!
0G!
0O
0\
1`
0X
0u
1r
0t
0@!
1?!
0A
1>
0F
0-
1.
0/
#670000
1+
1?
1q
1P
1Q
1T
1p
1C!
1D!
1G!
1O
1X
1u
1F
1/
#680000
0+
0?
0q
0P
0Q
0T
0p
0C!
0D!
0G!
0O
0X
0u
0F
0/
#685000
0S
0F!
0`
0r
0>
0.
#690000
1+
1?
1q
1P
1Q
1T
1p
1C!
1D!
1G!
1O
1X
1u
1F
1/
#700000
0+
0?
0q
0P
0Q
0T
0p
0C!
0D!
0G!
0O
0X
0u
0F
0/
#710000
1+
1?
1q
1P
1Q
1R
1S
1T
1p
1C!
1D!
1E!
1F!
1G!
1O
1\
1`
1X
1u
1r
1t
1X!
1@!
0?!
0v
0w
1x
1z
1A
1>
1F
0y
0{
1-
1.
1/
1|
#720000
0+
0?
0q
0P
0Q
0T
0p
0C!
0D!
0G!
0O
0X
0u
0F
0/
#730000
1+
1?
1q
1P
1Q
1T
1p
1C!
1D!
1G!
1O
1X
1u
1F
1/
#735000
0S
0F!
0`
0r
0>
0.
#740000
0+
0?
0q
0P
0Q
0T
0p
0C!
0D!
0G!
0O
0X
0u
0F
0/
#750000
1+
1?
1q
1P
1Q
1T
1p
1C!
1D!
1G!
1O
1X
1u
1F
1/
#760000
0+
0?
0q
0P
0Q
0R
1S
0T
0p
0C!
0D!
0E!
1F!
0G!
0O
0\
1`
0X
0u
1r
0t
0@!
1?!
0A
1>
0F
0-
1.
0/
#770000
1+
1?
1q
1P
1Q
1T
1p
1C!
1D!
1G!
1O
1X
1u
1F
1/
#780000
0+
0?
0q
0P
0Q
0T
0p
0C!
0D!
0G!
0O
0X
0u
0F
0/
#785000
0S
0F!
0`
0r
0>
0.
#790000
1+
1?
1q
1P
1Q
1T
1p
1C!
1D!
1G!
1O
1X
1u
1F
1/
#800000
0+
0?
0q
0P
0Q
0T
0p
0C!
0D!
0G!
0O
0X
0u
0F
0/
#810000
1+
1?
1q
1P
1Q
1R
1S
1T
1p
1C!
1D!
1E!
1F!
1G!
1O
1\
1`
1X
1u
1r
1t
0X!
0W!
0V!
1U!
1@!
0?!
0|
1}
1y
1{
1v
0x
0z
1A
1>
1F
0y
1|
0}
1~
1-
1.
1/
0~
#820000
0+
0?
0q
0P
0Q
0T
0p
0C!
0D!
0G!
0O
0X
0u
0F
0/
#830000
1+
1?
1q
1P
1Q
1T
1p
1C!
1D!
1G!
1O
1X
1u
1F
1/
#835000
0S
0F!
0`
0r
0>
0.
#840000
0+
0?
0q
0P
0Q
0T
0p
0C!
0D!
0G!
0O
0X
0u
0F
0/
#850000
1+
1?
1q
1P
1Q
1T
1p
1C!
1D!
1G!
1O
1X
1u
1F
1/
#860000
0+
0?
0q
0P
0Q
0R
1S
0T
0p
0C!
0D!
0E!
1F!
0G!
0O
0\
1`
0X
0u
1r
0t
0@!
1?!
0A
1>
0F
0-
1.
0/
#870000
1+
1?
1q
1P
1Q
1T
1p
1C!
1D!
1G!
1O
1X
1u
1F
1/
#880000
0+
0?
0q
0P
0Q
0T
0p
0C!
0D!
0G!
0O
0X
0u
0F
0/
#885000
0S
0F!
0`
0r
0>
0.
#890000
1+
1?
1q
1P
1Q
1T
1p
1C!
1D!
1G!
1O
1X
1u
1F
1/
#900000
0+
0?
0q
0P
0Q
0T
0p
0C!
0D!
0G!
0O
0X
0u
0F
0/
#910000
1+
1?
1q
1P
1Q
1R
1S
1T
1p
1C!
1D!
1E!
1F!
1G!
1O
1\
1`
1X
1u
1r
1t
1X!
1@!
0?!
0v
1w
1A
1>
1F
1-
1.
1/
#920000
0+
0?
0q
0P
0Q
0T
0p
0C!
0D!
0G!
0O
0X
0u
0F
0/
#930000
1+
1?
1q
1P
1Q
1T
1p
1C!
1D!
1G!
1O
1X
1u
1F
1/
#935000
0S
0F!
0`
0r
0>
0.
#940000
0+
0?
0q
0P
0Q
0T
0p
0C!
0D!
0G!
0O
0X
0u
0F
0/
#950000
1+
1?
1q
1P
1Q
1T
1p
1C!
1D!
1G!
1O
1X
1u
1F
1/
#960000
0+
0?
0q
0P
0Q
0R
1S
0T
0p
0C!
0D!
0E!
1F!
0G!
0O
0\
1`
0X
0u
1r
0t
0@!
1?!
0A
1>
0F
0-
1.
0/
#970000
1+
1?
1q
1P
1Q
1T
1p
1C!
1D!
1G!
1O
1X
1u
1F
1/
#980000
0+
0?
0q
0P
0Q
0T
0p
0C!
0D!
0G!
0O
0X
0u
0F
0/
#985000
0S
0F!
0`
0r
0>
0.
#990000
1+
1?
1q
1P
1Q
1T
1p
1C!
1D!
1G!
1O
1X
1u
1F
1/
#1000000
0q
0P
0Q
0T
0C!
0D!
0G!
0X
0u
0F
0/
#1010000
1q
1P
1Q
1R
1S
1T
1C!
1D!
1E!
1F!
1G!
1\
1`
1X
1u
1r
1t
0X!
1W!
1@!
0?!
1v
1A
1>
1F
1-
1.
1/
#1020000
0q
0P
0Q
0T
0C!
0D!
0G!
0X
0u
0F
0/
#1030000
1q
0s
xP
xQ
xR
xS
xT
xC!
xD!
xE!
xF!
xG!
0q
x\
x`
xX
0@
xu
xr
xt
02
xA
x>
xF
x-
x.
x/
